Learning to crawl
…
error_semimajor_axis  length of the semi-major error axis (meters)

error_semiminor_axis  length of the semi-minor error axis (meters)

error_ellipse_orientation  error ellipse orientation (degrees)

Adjust Duplicate Times

We have already confirmed that our date_time column is of class POSIXct and that the time zone is set to UTC. As was stated earlier, Argos data are known to occasionally produce records with duplicate date-time values  this dataset is no exception.

beardedSeals %>% 
  group_by(deployid,date_time) %>% 
  filter(n()>1)

## # A tibble: 3,105 x 12
## # Groups:   deployid, date_time [1,513]
##    deployid ptt   instr date_time           type  quality latitude longitude
##    <chr>    <chr> <chr> <dttm>              <chr> <chr>      <dbl>     <dbl>
##  1 EB2011_ 38553 Mk10  2011-06-18 09:11:19 Argos B           66.6     -163.
##  2 EB2011_ 38553 Mk10  2011-06-18 09:11:19 Argos 0           66.6     -163.
##  3 EB2011_ 38553 Mk10  2011-06-19 03:25:37 Argos 1           66.6     -163.
##  4 EB2011_ 38553 Mk10  2011-06-19 03:25:37 Argos 1           66.6     -163.
##  5 EB2011_ 38553 Mk10  2011-06-19 11:03:09 Argos B           66.7     -163.
##  6 EB2011_ 38553 Mk10  2011-06-19 11:03:09 Argos B           66.6     -163.
##  7 EB2011_ 38553 Mk10  2011-06-22 04:30:43 Argos B           66.6     -163.
##  8 EB2011_ 38553 Mk10  2011-06-22 04:30:43 Argos 0           66.6     -163.
##  9 EB2011_ 38553 Mk10  2011-06-23 03:18:55 Argos B           66.4     -163.
## 10 EB2011_ 38553 Mk10  2011-06-23 03:18:55 Argos B           66.4     -163.
## #  with 3,095 more rows, and 4 more variables: error_radius <dbl>,
## #   error_semimajor_axis <dbl>, error_semiminor_axis <dbl>,
## #   error_ellipse_orientation <dbl>
…
